Did not find any Python interpreter that is able to run terradep helper
scripts. terradep requires Python versions in the range >= 3.7, < 4. Please
install a matching version (e.g. using pyenv) and/or provide a path of one in
the TERRADEP_PYTHON env var. Rerun with TF_LOG=debug to see detailed error
messages. Ignore what Terraform says below about this plugin being invalid
(pure slander).
